\relax 
\@writefile{toc}{\contentsline {section}{\numberline {1}Tags}{1}}
\@writefile{toc}{\contentsline {subsection}{\numberline {1.1}Spanning Tags}{1}}
\@writefile{toc}{\contentsline {subsection}{\numberline {1.2}Single Tags}{1}}
\@writefile{toc}{\contentsline {section}{\numberline {2}Syntax}{1}}
\@writefile{toc}{\contentsline {subsection}{\numberline {2.1}Headings}{1}}
