PWD Y:/GitHub/learning-html/reference-notes
INPUT C:/Users/ASUS/AppData/Local/MiKTeX/2.9/miktex/data/le/luatex/lualatex.fmt
INPUT ./notes.tex
INPUT ./notes.tex
OUTPUT notes.log
INPUT C:/Program Files/MiKTeX 2.9/tex/luatex/lualibs/lualibs-basic.lua
INPUT C:/Program Files/MiKTeX 2.9/tex/luatex/lualibs/lualibs-lua.lua
INPUT C:/Program Files/MiKTeX 2.9/tex/luatex/lualibs/lualibs-package.lua
INPUT C:/Program Files/MiKTeX 2.9/tex/luatex/lualibs/lualibs-lpeg.lua
INPUT C:/Program Files/MiKTeX 2.9/tex/luatex/lualibs/lualibs-function.lua
INPUT C:/Program Files/MiKTeX 2.9/tex/luatex/lualibs/lualibs-string.lua
INPUT C:/Program Files/MiKTeX 2.9/tex/luatex/lualibs/lualibs-table.lua
INPUT C:/Program Files/MiKTeX 2.9/tex/luatex/lualibs/lualibs-boolean.lua
INPUT C:/Program Files/MiKTeX 2.9/tex/luatex/lualibs/lualibs-number.lua
INPUT C:/Program Files/MiKTeX 2.9/tex/luatex/lualibs/lualibs-math.lua
INPUT C:/Program Files/MiKTeX 2.9/tex/luatex/lualibs/lualibs-io.lua
INPUT C:/Program Files/MiKTeX 2.9/tex/luatex/lualibs/lualibs-os.lua
INPUT C:/Program Files/MiKTeX 2.9/tex/luatex/lualibs/lualibs-file.lua
INPUT C:/Program Files/MiKTeX 2.9/tex/luatex/lualibs/lualibs-gzip.lua
INPUT C:/Program Files/MiKTeX 2.9/tex/luatex/lualibs/lualibs-md5.lua
INPUT C:/Program Files/MiKTeX 2.9/tex/luatex/lualibs/lualibs-dir.lua
INPUT C:/Program Files/MiKTeX 2.9/tex/luatex/lualibs/lualibs-unicode.lua
INPUT C:/Program Files/MiKTeX 2.9/tex/luatex/lualibs/lualibs-url.lua
INPUT C:/Program Files/MiKTeX 2.9/tex/luatex/lualibs/lualibs-set.lua
INPUT C:/Program Files/MiKTeX 2.9/tex/luatex/lualibs/lualibs-compat.lua
INPUT C:/Program Files/MiKTeX 2.9/tex/luatex/lualibs/lualibs-extended.lua
INPUT C:/Program Files/MiKTeX 2.9/tex/luatex/lualibs/lualibs-util-str.lua
INPUT C:/Program Files/MiKTeX 2.9/tex/luatex/lualibs/lualibs-util-fil.lua
INPUT C:/Program Files/MiKTeX 2.9/tex/luatex/lualibs/lualibs-util-tab.lua
INPUT C:/Program Files/MiKTeX 2.9/tex/luatex/lualibs/lualibs-util-sto.lua
INPUT C:/Program Files/MiKTeX 2.9/tex/luatex/lualibs/lualibs-util-prs.lua
INPUT C:/Program Files/MiKTeX 2.9/tex/luatex/lualibs/lualibs-util-dim.lua
INPUT C:/Program Files/MiKTeX 2.9/tex/luatex/lualibs/lualibs-util-jsn.lua
INPUT C:/Program Files/MiKTeX 2.9/tex/luatex/lualibs/lualibs-trac-inf.lua
INPUT C:/Program Files/MiKTeX 2.9/tex/luatex/lualibs/lualibs-util-lua.lua
INPUT C:/Program Files/MiKTeX 2.9/tex/luatex/lualibs/lualibs-util-deb.lua
INPUT C:/Program Files/MiKTeX 2.9/tex/luatex/lualibs/lualibs-util-tpl.lua
INPUT C:/Program Files/MiKTeX 2.9/tex/luatex/lualibs/lualibs-util-sta.lua
INPUT C:/Program Files/MiKTeX 2.9/tex/luatex/luaotfload/luaotfload-characters.lua
INPUT C:/Program Files/MiKTeX 2.9/tex/latex/base/article.cls
INPUT C:/Program Files/MiKTeX 2.9/tex/latex/base/article.cls
INPUT C:/Program Files/MiKTeX 2.9/tex/latex/base/article.cls
INPUT C:/Program Files/MiKTeX 2.9/tex/latex/base/article.cls
INPUT C:/Program Files/MiKTeX 2.9/tex/latex/base/size10.clo
INPUT C:/Program Files/MiKTeX 2.9/tex/latex/base/size10.clo
INPUT C:/Program Files/MiKTeX 2.9/tex/latex/base/size10.clo
INPUT C:/Program Files/MiKTeX 2.9/tex/latex/base/size10.clo
INPUT C:/Users/ASUS/AppData/Local/MiKTeX/2.9/luatex-cache/generic/fonts/otl/lmroman10-regular.luc
INPUT C:/Program Files/MiKTeX 2.9/tex/latex/geometry/geometry.sty
INPUT C:/Program Files/MiKTeX 2.9/tex/latex/geometry/geometry.sty
INPUT C:/Program Files/MiKTeX 2.9/tex/latex/geometry/geometry.sty
INPUT C:/Program Files/MiKTeX 2.9/tex/latex/geometry/geometry.sty
INPUT C:/Program Files/MiKTeX 2.9/tex/latex/graphics/keyval.sty
INPUT C:/Program Files/MiKTeX 2.9/tex/latex/graphics/keyval.sty
INPUT C:/Program Files/MiKTeX 2.9/tex/latex/graphics/keyval.sty
INPUT C:/Program Files/MiKTeX 2.9/tex/latex/graphics/keyval.sty
INPUT C:/Program Files/MiKTeX 2.9/tex/generic/oberdiek/ifpdf.sty
INPUT C:/Program Files/MiKTeX 2.9/tex/generic/oberdiek/ifpdf.sty
INPUT C:/Program Files/MiKTeX 2.9/tex/generic/oberdiek/ifpdf.sty
INPUT C:/Program Files/MiKTeX 2.9/tex/generic/oberdiek/ifpdf.sty
INPUT C:/Program Files/MiKTeX 2.9/tex/generic/oberdiek/ifvtex.sty
INPUT C:/Program Files/MiKTeX 2.9/tex/generic/oberdiek/ifvtex.sty
INPUT C:/Program Files/MiKTeX 2.9/tex/generic/oberdiek/ifvtex.sty
INPUT C:/Program Files/MiKTeX 2.9/tex/generic/oberdiek/ifvtex.sty
INPUT C:/Program Files/MiKTeX 2.9/tex/generic/ifxetex/ifxetex.sty
INPUT C:/Program Files/MiKTeX 2.9/tex/generic/ifxetex/ifxetex.sty
INPUT C:/Program Files/MiKTeX 2.9/tex/generic/ifxetex/ifxetex.sty
INPUT C:/Program Files/MiKTeX 2.9/tex/generic/ifxetex/ifxetex.sty
INPUT C:/Program Files/MiKTeX 2.9/tex/latex/geometry/geometry.cfg
INPUT C:/Program Files/MiKTeX 2.9/tex/latex/geometry/geometry.cfg
INPUT C:/Program Files/MiKTeX 2.9/tex/latex/geometry/geometry.cfg
INPUT C:/Program Files/MiKTeX 2.9/tex/latex/geometry/geometry.cfg
INPUT C:/Program Files/MiKTeX 2.9/tex/latex/fontspec/fontspec.sty
INPUT C:/Program Files/MiKTeX 2.9/tex/latex/fontspec/fontspec.sty
INPUT C:/Program Files/MiKTeX 2.9/tex/latex/fontspec/fontspec.sty
INPUT C:/Program Files/MiKTeX 2.9/tex/latex/fontspec/fontspec.sty
INPUT C:/Program Files/MiKTeX 2.9/tex/latex/l3packages/xparse/xparse.sty
INPUT C:/Program Files/MiKTeX 2.9/tex/latex/l3packages/xparse/xparse.sty
INPUT C:/Program Files/MiKTeX 2.9/tex/latex/l3packages/xparse/xparse.sty
INPUT C:/Program Files/MiKTeX 2.9/tex/latex/l3packages/xparse/xparse.sty
INPUT C:/Program Files/MiKTeX 2.9/tex/latex/l3kernel/expl3.sty
INPUT C:/Program Files/MiKTeX 2.9/tex/latex/l3kernel/expl3.sty
INPUT C:/Program Files/MiKTeX 2.9/tex/latex/l3kernel/expl3.sty
INPUT C:/Program Files/MiKTeX 2.9/tex/latex/l3kernel/expl3.sty
INPUT C:/Program Files/MiKTeX 2.9/tex/latex/l3kernel/expl3-code.tex
INPUT C:/Program Files/MiKTeX 2.9/tex/latex/l3kernel/expl3-code.tex
INPUT C:/Program Files/MiKTeX 2.9/tex/latex/l3kernel/expl3-code.tex
INPUT C:/Program Files/MiKTeX 2.9/tex/latex/l3kernel/expl3-code.tex
INPUT C:/Program Files/MiKTeX 2.9/fonts/tfm/public/cm/cmr10.tfm
INPUT C:/Program Files/MiKTeX 2.9/fonts/tfm/public/cm/cmr10.tfm
INPUT C:/Program Files/MiKTeX 2.9/fonts/tfm/public/cm/cmr10.tfm
INPUT C:/Program Files/MiKTeX 2.9/fonts/tfm/public/cm/cmr10.tfm
INPUT C:/Program Files/MiKTeX 2.9/fonts/tfm/public/cm/cmr10.tfm
INPUT C:/Program Files/MiKTeX 2.9/fonts/tfm/public/cm/cmr10.tfm
INPUT C:/Program Files/MiKTeX 2.9/fonts/tfm/public/cm/cmr10.tfm
INPUT C:/Program Files/MiKTeX 2.9/fonts/tfm/public/cm/cmr10.tfm
INPUT C:/Program Files/MiKTeX 2.9/fonts/tfm/public/cm/cmr10.tfm
INPUT C:/Program Files/MiKTeX 2.9/fonts/tfm/public/cm/cmr10.tfm
INPUT C:/Program Files/MiKTeX 2.9/fonts/tfm/public/cm/cmr10.tfm
INPUT C:/Program Files/MiKTeX 2.9/fonts/tfm/public/cm/cmr10.tfm
INPUT C:/Program Files/MiKTeX 2.9/fonts/tfm/public/cm/cmr10.tfm
INPUT C:/Program Files/MiKTeX 2.9/fonts/tfm/public/cm/cmr10.tfm
INPUT C:/Program Files/MiKTeX 2.9/fonts/tfm/public/cm/cmr10.tfm
INPUT C:/Program Files/MiKTeX 2.9/fonts/tfm/public/cm/cmr10.tfm
INPUT C:/Program Files/MiKTeX 2.9/fonts/tfm/public/cm/cmr10.tfm
INPUT C:/Program Files/MiKTeX 2.9/fonts/tfm/public/cm/cmr10.tfm
INPUT C:/Program Files/MiKTeX 2.9/fonts/tfm/public/cm/cmr10.tfm
INPUT C:/Program Files/MiKTeX 2.9/fonts/tfm/public/cm/cmr10.tfm
INPUT C:/Program Files/MiKTeX 2.9/tex/generic/unicode-data/UnicodeData.txt
INPUT C:/Program Files/MiKTeX 2.9/tex/generic/unicode-data/UnicodeData.txt
INPUT C:/Program Files/MiKTeX 2.9/tex/generic/unicode-data/UnicodeData.txt
INPUT C:/Program Files/MiKTeX 2.9/tex/generic/unicode-data/UnicodeData.txt
INPUT C:/Program Files/MiKTeX 2.9/tex/generic/unicode-data/CaseFolding.txt
INPUT C:/Program Files/MiKTeX 2.9/tex/generic/unicode-data/CaseFolding.txt
INPUT C:/Program Files/MiKTeX 2.9/tex/generic/unicode-data/CaseFolding.txt
INPUT C:/Program Files/MiKTeX 2.9/tex/generic/unicode-data/CaseFolding.txt
INPUT C:/Program Files/MiKTeX 2.9/tex/generic/unicode-data/SpecialCasing.txt
INPUT C:/Program Files/MiKTeX 2.9/tex/generic/unicode-data/SpecialCasing.txt
INPUT C:/Program Files/MiKTeX 2.9/tex/generic/unicode-data/SpecialCasing.txt
INPUT C:/Program Files/MiKTeX 2.9/tex/generic/unicode-data/SpecialCasing.txt
INPUT C:/Program Files/MiKTeX 2.9/tex/latex/l3kernel/l3pdfmode.def
INPUT C:/Program Files/MiKTeX 2.9/tex/latex/l3kernel/l3pdfmode.def
INPUT C:/Program Files/MiKTeX 2.9/tex/latex/l3kernel/l3pdfmode.def
INPUT C:/Program Files/MiKTeX 2.9/tex/latex/l3kernel/l3pdfmode.def
INPUT C:/Program Files/MiKTeX 2.9/tex/latex/fontspec/fontspec-luatex.sty
INPUT C:/Program Files/MiKTeX 2.9/tex/latex/fontspec/fontspec-luatex.sty
INPUT C:/Program Files/MiKTeX 2.9/tex/latex/fontspec/fontspec-luatex.sty
INPUT C:/Program Files/MiKTeX 2.9/tex/latex/fontspec/fontspec-luatex.sty
INPUT C:/Program Files/MiKTeX 2.9/tex/latex/base/tuenc.def
INPUT C:/Program Files/MiKTeX 2.9/tex/latex/base/tuenc.def
INPUT C:/Program Files/MiKTeX 2.9/tex/latex/base/fontenc.sty
INPUT C:/Program Files/MiKTeX 2.9/tex/latex/base/fontenc.sty
INPUT C:/Program Files/MiKTeX 2.9/tex/latex/base/fontenc.sty
INPUT C:/Program Files/MiKTeX 2.9/tex/latex/base/fontenc.sty
INPUT C:/Program Files/MiKTeX 2.9/tex/latex/base/tuenc.def
INPUT C:/Program Files/MiKTeX 2.9/tex/latex/base/tuenc.def
INPUT C:/Program Files/MiKTeX 2.9/tex/latex/base/tuenc.def
INPUT C:/Program Files/MiKTeX 2.9/tex/latex/base/tuenc.def
INPUT C:/Program Files/MiKTeX 2.9/tex/latex/fontspec/fontspec.cfg
INPUT C:/Program Files/MiKTeX 2.9/tex/latex/fontspec/fontspec.cfg
INPUT C:/Program Files/MiKTeX 2.9/tex/latex/fontspec/fontspec.cfg
INPUT C:/Program Files/MiKTeX 2.9/tex/latex/fontspec/fontspec.cfg
INPUT C:/Users/ASUS/AppData/Local/MiKTeX/2.9/luatex-cache/generic/fonts/otl/lmroman10-bold.luc
INPUT C:/Users/ASUS/AppData/Local/MiKTeX/2.9/luatex-cache/generic/fonts/otl/lmroman10-italic.luc
INPUT C:/Users/ASUS/AppData/Local/MiKTeX/2.9/luatex-cache/generic/fonts/otl/firacode-regular.luc
INPUT C:/Users/ASUS/AppData/Local/MiKTeX/2.9/luatex-cache/generic/fonts/otl/firacode-retina.luc
INPUT C:/Users/ASUS/AppData/Local/MiKTeX/2.9/luatex-cache/generic/fonts/otl/firacode-bold.luc
INPUT ./notes.aux
INPUT ./notes.aux
INPUT ./notes.aux
INPUT ./notes.aux
OUTPUT notes.aux
INPUT C:/Program Files/MiKTeX 2.9/fonts/tfm/public/cm/cmmi12.tfm
INPUT C:/Program Files/MiKTeX 2.9/fonts/tfm/public/cm/cmmi12.tfm
INPUT C:/Program Files/MiKTeX 2.9/fonts/tfm/public/cm/cmmi8.tfm
INPUT C:/Program Files/MiKTeX 2.9/fonts/tfm/public/cm/cmmi8.tfm
INPUT C:/Program Files/MiKTeX 2.9/fonts/tfm/public/cm/cmmi6.tfm
INPUT C:/Program Files/MiKTeX 2.9/fonts/tfm/public/cm/cmmi6.tfm
INPUT C:/Program Files/MiKTeX 2.9/fonts/tfm/public/cm/cmsy10.tfm
INPUT C:/Program Files/MiKTeX 2.9/fonts/tfm/public/cm/cmsy10.tfm
INPUT C:/Program Files/MiKTeX 2.9/fonts/tfm/public/cm/cmsy8.tfm
INPUT C:/Program Files/MiKTeX 2.9/fonts/tfm/public/cm/cmsy8.tfm
INPUT C:/Program Files/MiKTeX 2.9/fonts/tfm/public/cm/cmsy6.tfm
INPUT C:/Program Files/MiKTeX 2.9/fonts/tfm/public/cm/cmsy6.tfm
INPUT C:/Program Files/MiKTeX 2.9/fonts/tfm/public/cm/cmex10.tfm
INPUT C:/Program Files/MiKTeX 2.9/fonts/tfm/public/cm/cmex10.tfm
INPUT C:/Program Files/MiKTeX 2.9/fonts/tfm/public/cm/cmr12.tfm
INPUT C:/Program Files/MiKTeX 2.9/fonts/tfm/public/cm/cmr12.tfm
INPUT C:/Program Files/MiKTeX 2.9/fonts/tfm/public/cm/cmr8.tfm
INPUT C:/Program Files/MiKTeX 2.9/fonts/tfm/public/cm/cmr8.tfm
INPUT C:/Program Files/MiKTeX 2.9/fonts/tfm/public/cm/cmr6.tfm
INPUT C:/Program Files/MiKTeX 2.9/fonts/tfm/public/cm/cmr6.tfm
OUTPUT notes.pdf
INPUT ./notes.aux
INPUT ./notes.aux
